ActsPixelClusterizationAlg                                        INFO Clusterization statistics
|----------|------------|
| RDOs     |    3423993 |
| Clusters |    1165578 |
|----------|------------|
ActsStripClusterizationAlg                                        INFO Clusterization statistics
|----------|------------|
| RDOs     |    1345365 |
| Clusters |    1081478 |
|----------|------------|
ActsHgtdClusterizationAlg                                         INFO Clusterization statistics
|----------|------------|
| RDOs     |     341404 |
| Clusters |     341404 |
|----------|------------|
ActsPixelSpacePointFormationAlg                                   INFO Space Point Formation statistics
|--------------|------------|
| Clusters     |    1165578 |
| Space Points |    1165578 |
|--------------|------------|
ActsStripSpacePointFormationAlg                                   INFO Space Point Formation statistics
|----------------------|------------|
| Clusters             |    1081478 |
| Space Points         |     325456 |
| Overlap Space Points |     101370 |
|----------------------|------------|
ActsPixelSeedingAlg                                               INFO Seed statistics
|-------------|------------|
| Spacepoints |    1165578 |
| Seeds       |     123542 |
|-------------|------------|
ActsStripSeedingAlg                                               INFO Seed statistics
|-------------|------------|
| Spacepoints |     426826 |
| Seeds       |      25844 |
|-------------|------------|
ActsTrackFindingAlg                                               INFO statistics
|-----------------------------------|------------|------------|------------|
|                           All eta | PPP        | SSS        | ALL        |
|-----------------------------------|------------|------------|------------|
| Input seeds                       |     123542 |      25844 |     149386 |
| No track parameters               |          0 |          0 |          0 |
| Used   seeds                      |      78103 |      16386 |      94489 |
| Cannot find track                 |      63276 |      12484 |      75760 |
| Duplicate seeds                   |      45439 |       9458 |      54897 |
| Initial param estimation failed   |          0 |          0 |          0 |
| CKF tracks                        |      14827 |       3902 |      18729 |
| Rejected refined parameters       |          0 |          0 |          0 |
| selected tracks                   |      13392 |        823 |      14215 |
| Stopped tracks reaching max holes |      60862 |      11966 |      72828 |
| Seeds with more than one branch   |          0 |          0 |          0 |
| Tracks failing second CKF         |         11 |        194 |        205 |
| Stopped tracks below pT cut       |       2414 |        518 |       2932 |
| Stopped tracks above max eta      |          0 |          0 |          0 |
| Total shared hits                 |      94011 |      18329 |     112340 |
|-----------------------------------|------------|------------|------------|
ActsTrackFindingAlg                                               INFO Ratios
|------------------------------------------|------------|------------|------------|
|                                          | PPP        | SSS        | ALL        |
|------------------------------------------|------------|------------|------------|
| failed / seeds                           |   0.512182 |   0.483052 |   0.507143 |
| duplication / seeds                      |   0.367802 |   0.365965 |   0.367484 |
| Rejected refined params / seeds          |          0 |          0 |          0 |
| selected / CKF tracks                    |   0.903217 |   0.210917 |   0.758983 |
| selected tracks / used seeds             |   0.171466 |  0.0502258 |   0.150441 |
| branched tracks / used seeds             |          0 |          0 |          0 |
| no 2nd CKF / CKF tracks                  | 0.00074189 |  0.0497181 |  0.0109456 |
| shared hits / CKF tracks                 |    6.34053 |    4.69733 |    5.99818 |
|------------------------------------------|------------|------------|------------|
| selected / CKF tracks           0.0- 0.5 |   0.890205 |   0.115681 |   0.708157 |
|                                 0.5- 1.0 |   0.913255 |   0.251407 |   0.734549 |
|                                 1.0- 1.5 |    0.88605 |   0.225086 |   0.696552 |
|                                 1.5- 2.0 |   0.793217 |   0.215283 |   0.546566 |
|                                 2.0- 2.5 |   0.943406 |   0.212355 |   0.696545 |
|                                 2.5- 3.0 |   0.882635 |          0 |   0.882282 |
|                                 3.0- 3.5 |   0.936117 |          0 |   0.936117 |
|                                 3.5-+inf |   0.960328 |          0 |   0.960328 |
|------------------------------------------|------------|------------|------------|
ActsPrdAssociationAlg                                             INFO Prd Map statistics
|-----------------------|------------|
| N. Tracks             |       9551 |
| N. Pixel Measurements |     102124 |
| N. Strip Measurements |      40050 |
| N. Hgtd Measurements  |         23 |
|-----------------------|------------|
ActsLargeRadiusPixelClusterPreparationAlg                         INFO Data Prep statistics
|---------|------------|
| Inputs  |    1165578 |
| Outputs |    1063526 |
|---------|------------|
ActsLargeRadiusStripClusterPreparationAlg                         INFO Data Prep statistics
|---------|------------|
| Inputs  |    1081478 |
| Outputs |    1041463 |
|---------|------------|
ActsLargeRadiusHgtdClusterPreparationAlg                          INFO Data Prep statistics
|---------|------------|
| Inputs  |     341404 |
| Outputs |     341381 |
|---------|------------|
ActsLargeRadiusStripSpacePointPreparationAlg                      INFO Data Prep statistics
|---------|------------|
| Inputs  |     325456 |
| Outputs |     303593 |
|---------|------------|
ActsLargeRadiusStripOv...pSpacePointPreparationAlg                INFO Data Prep statistics
|---------|------------|
| Inputs  |     101370 |
| Outputs |      94590 |
|---------|------------|
ActsLargeRadiusStripSeedingAlg                                    INFO Seed statistics
|-------------|------------|
| Spacepoints |     398183 |
| Seeds       |      10170 |
|-------------|------------|
ActsLargeRadiusTrackFindingAlg                                    INFO statistics
|-----------------------------------|------------|------------|
|                           All eta | SSS        | ALL        |
|-----------------------------------|------------|------------|
| Input seeds                       |      10170 |      10170 |
| No track parameters               |          0 |          0 |
| Used   seeds                      |       9951 |       9951 |
| Cannot find track                 |       8979 |       8979 |
| Duplicate seeds                   |        219 |        219 |
| Initial param estimation failed   |          0 |          0 |
| CKF tracks                        |        972 |        972 |
| Rejected refined parameters       |          0 |          0 |
| selected tracks                   |        132 |        132 |
| Stopped tracks reaching max holes |       7007 |       7007 |
| Seeds with more than one branch   |          0 |          0 |
| Tracks failing second CKF         |         30 |         30 |
| Stopped tracks below pT cut       |       1972 |       1972 |
| Stopped tracks above max eta      |          0 |          0 |
| Total shared hits                 |        776 |        776 |
|-----------------------------------|------------|------------|
ActsLargeRadiusTrackFindingAlg                                    INFO Ratios
|------------------------------------------|------------|------------|
|                                          | SSS        | ALL        |
|------------------------------------------|------------|------------|
| failed / seeds                           |   0.882891 |   0.882891 |
| duplication / seeds                      |  0.0215339 |  0.0215339 |
| Rejected refined params / seeds          |          0 |          0 |
| selected / CKF tracks                    |   0.135802 |   0.135802 |
| selected tracks / used seeds             |   0.013265 |   0.013265 |
| branched tracks / used seeds             |          0 |          0 |
| no 2nd CKF / CKF tracks                  |  0.0308642 |  0.0308642 |
| shared hits / CKF tracks                 |   0.798354 |   0.798354 |
|------------------------------------------|------------|------------|
| selected / CKF tracks           0.0- 0.5 |   0.169014 |   0.169014 |
|                                 0.5- 1.0 |   0.223529 |   0.223529 |
|                                 1.0- 1.5 |   0.212766 |   0.212766 |
|                                 1.5- 2.0 |    0.13981 |    0.13981 |
|                                 2.0- 2.5 |  0.0733333 |  0.0733333 |
|                                 2.5- 3.0 |          0 |          0 |
|                                 3.0- 3.5 |          0 |          0 |
|                                 3.5-+inf |          0 |          0 |
|------------------------------------------|------------|------------|
ActsLargeRadiusPrdAssociationAlg                                  INFO Prd Map statistics
|-----------------------|------------|
| N. Tracks             |         97 |
| N. Pixel Measurements |        479 |
| N. Strip Measurements |        928 |
| N. Hgtd Measurements  |          1 |
|-----------------------|------------|
ActsConversionPixelClusterPreparationAlg                          INFO Data Prep statistics
|---------|------------|
| Inputs  |    1165578 |
| Outputs |      27113 |
|---------|------------|
ActsConversionStripClusterPreparationAlg                          INFO Data Prep statistics
|---------|------------|
| Inputs  |    1081478 |
| Outputs |      15516 |
|---------|------------|
ActsConversionHgtdClusterPreparationAlg                           INFO Data Prep statistics
|---------|------------|
| Inputs  |     341404 |
| Outputs |     341380 |
|---------|------------|
ActsConversionStripSpacePointPreparationAlg                       INFO Data Prep statistics
|---------|------------|
| Inputs  |     325456 |
| Outputs |       4502 |
|---------|------------|
ActsConversionStripSeedingAlg                                     INFO Seed statistics
|-------------|------------|
| Spacepoints |       4502 |
| Seeds       |         71 |
|-------------|------------|
ActsConversionTrackFindingAlg                                     INFO statistics
|-----------------------------------|------------|------------|
|                           All eta | SSS        | ALL        |
|-----------------------------------|------------|------------|
| Input seeds                       |         71 |         71 |
| No track parameters               |          0 |          0 |
| Used   seeds                      |         71 |         71 |
| Cannot find track                 |         54 |         54 |
| Duplicate seeds                   |          0 |          0 |
| Initial param estimation failed   |          0 |          0 |
| CKF tracks                        |         17 |         17 |
| Rejected refined parameters       |          0 |          0 |
| selected tracks                   |          0 |          0 |
| Stopped tracks reaching max holes |         46 |         46 |
| Seeds with more than one branch   |          0 |          0 |
| Tracks failing second CKF         |          0 |          0 |
| Stopped tracks below pT cut       |          8 |          8 |
| Stopped tracks above max eta      |          0 |          0 |
| Total shared hits                 |          0 |          0 |
|-----------------------------------|------------|------------|
ActsConversionTrackFindingAlg                                     INFO Ratios
|------------------------------------------|------------|------------|
|                                          | SSS        | ALL        |
|------------------------------------------|------------|------------|
| failed / seeds                           |   0.760563 |   0.760563 |
| duplication / seeds                      |          0 |          0 |
| Rejected refined params / seeds          |          0 |          0 |
| selected / CKF tracks                    |          0 |          0 |
| selected tracks / used seeds             |          0 |          0 |
| branched tracks / used seeds             |          0 |          0 |
| no 2nd CKF / CKF tracks                  |          0 |          0 |
| shared hits / CKF tracks                 |          0 |          0 |
|------------------------------------------|------------|------------|
| selected / CKF tracks           0.0- 0.5 |          0 |          0 |
|                                 0.5- 1.0 |          0 |          0 |
|                                 1.0- 1.5 |          0 |          0 |
|                                 1.5- 2.0 |          0 |          0 |
|                                 2.0- 2.5 |          0 |          0 |
|                                 2.5- 3.0 |          0 |          0 |
|                                 3.0- 3.5 |          0 |          0 |
|                                 3.5-+inf |          0 |          0 |
|------------------------------------------|------------|------------|
ActsConversionPrdAssociationAlg                                   INFO Prd Map statistics
|-----------------------|------------|
| N. Tracks             |          0 |
| N. Pixel Measurements |          0 |
| N. Strip Measurements |          0 |
| N. Hgtd Measurements  |          0 |
|-----------------------|------------|
ActsLowPtPixelClusterPreparationAlg                               INFO Data Prep statistics
|---------|------------|
| Inputs  |    1165578 |
| Outputs |    1063048 |
|---------|------------|
ActsLowPtStripClusterPreparationAlg                               INFO Data Prep statistics
|---------|------------|
| Inputs  |    1081478 |
| Outputs |    1040535 |
|---------|------------|
ActsLowPtHgtdClusterPreparationAlg                                INFO Data Prep statistics
|---------|------------|
| Inputs  |     341404 |
| Outputs |     341380 |
|---------|------------|
ActsLowPtPixelSpacePointPreparationAlg                            INFO Data Prep statistics
|---------|------------|
| Inputs  |    1165578 |
| Outputs |    1063048 |
|---------|------------|
ActsLowPtStripSpacePointPreparationAlg                            INFO Data Prep statistics
|---------|------------|
| Inputs  |     325456 |
| Outputs |     303102 |
|---------|------------|
ActsLowPtStripOverlapSpacePointPreparationAlg                     INFO Data Prep statistics
|---------|------------|
| Inputs  |     101370 |
| Outputs |      94416 |
|---------|------------|
ActsLowPtPixelSeedingAlg                                          INFO Seed statistics
|-------------|------------|
| Spacepoints |    1063048 |
| Seeds       |      46837 |
|-------------|------------|
ActsLowPtStripSeedingAlg                                          INFO Seed statistics
|-------------|------------|
| Spacepoints |     397518 |
| Seeds       |       9593 |
|-------------|------------|
ActsLowPtTrackFindingAlg                                          INFO statistics
|-----------------------------------|------------|------------|------------|
|                           All eta | PPP        | SSS        | ALL        |
|-----------------------------------|------------|------------|------------|
| Input seeds                       |      46837 |       9593 |      56430 |
| No track parameters               |          0 |          0 |          0 |
| Used   seeds                      |      46028 |       9232 |      55260 |
| Cannot find track                 |      44880 |       7465 |      52345 |
| Duplicate seeds                   |        809 |        361 |       1170 |
| Initial param estimation failed   |          0 |          0 |          0 |
| CKF tracks                        |       1148 |       1767 |       2915 |
| Rejected refined parameters       |          0 |          0 |          0 |
| selected tracks                   |        620 |         44 |        664 |
| Stopped tracks reaching max holes |      44439 |       7422 |      51861 |
| Seeds with more than one branch   |          0 |          0 |          0 |
| Tracks failing second CKF         |          0 |         71 |         71 |
| Stopped tracks below pT cut       |        441 |         43 |        484 |
| Stopped tracks above max eta      |          0 |          0 |          0 |
| Total shared hits                 |       3869 |        459 |       4328 |
|-----------------------------------|------------|------------|------------|
ActsLowPtTrackFindingAlg                                          INFO Ratios
|------------------------------------------|------------|------------|------------|
|                                          | PPP        | SSS        | ALL        |
|------------------------------------------|------------|------------|------------|
| failed / seeds                           |   0.958217 |   0.778172 |   0.927609 |
| duplication / seeds                      |  0.0172727 |  0.0376316 |  0.0207337 |
| Rejected refined params / seeds          |          0 |          0 |          0 |
| selected / CKF tracks                    |    0.54007 |   0.024901 |   0.227787 |
| selected tracks / used seeds             |  0.0134701 | 0.00476603 |  0.0120159 |
| branched tracks / used seeds             |          0 |          0 |          0 |
| no 2nd CKF / CKF tracks                  |          0 |  0.0401811 |  0.0243568 |
| shared hits / CKF tracks                 |    3.37021 |   0.259762 |    1.48473 |
|------------------------------------------|------------|------------|------------|
| selected / CKF tracks           0.0- 0.5 |   0.833333 |          0 |       0.36 |
|                                 0.5- 1.0 |   0.965909 |  0.0215827 |   0.387665 |
|                                 1.0- 1.5 |   0.948905 |  0.0769231 |   0.451411 |
|                                 1.5- 2.0 |   0.923077 |   0.037518 |   0.320236 |
|                                 2.0- 2.5 |  0.0657895 | 0.00163934 | 0.00874636 |
|                                 2.5- 3.0 |  0.0130435 |          0 |   0.012987 |
|                                 3.0- 3.5 |  0.0185185 |          0 |  0.0185185 |
|                                 3.5-+inf |  0.0657895 |          0 |  0.0657895 |
|------------------------------------------|------------|------------|------------|
ActsLowPtPrdAssociationAlg                                        INFO Prd Map statistics
|-----------------------|------------|
| N. Tracks             |        506 |
| N. Pixel Measurements |       3814 |
| N. Strip Measurements |       4189 |
| N. Hgtd Measurements  |          0 |
|-----------------------|------------|
